{"name":"Listar usuarios en la página 2","id":"listar-usuarios;listar-usuarios-en-la-página-2","scenarioId":"list_user:Listar usuarios en la página 2","methodName":"Listar usuarios en la página 2","testSteps":[{"number":1,"description":"Given que accedo al servicio de listar usuarios de ReqRes","duration":2,"startTime":"2024-11-02T15:12:23.506679500-05:00[America/Bogota]","result":"SUCCESS","precondition":false,"level":0},{"number":2,"description":"When realizo una solicitud GET al endpoint \"api/users?page\u003d2\"","duration":483,"startTime":"2024-11-02T15:12:23.511668300-05:00[America/Bogota]","result":"SUCCESS","precondition":false,"level":0,"children":[{"number":3,"description":"Antonio recupera lista de usuario de la pagina 2","duration":450,"startTime":"2024-11-02T15:12:23.542666600-05:00[America/Bogota]","result":"SUCCESS","precondition":false,"level":1,"children":[{"number":4,"description":"Antonio fetch users interaction","duration":445,"startTime":"2024-11-02T15:12:23.545665200-05:00[America/Bogota]","result":"SUCCESS","precondition":false,"level":2,"children":[{"number":5,"description":"Antonio executes a GET on the resource api/users?page\u003d2","duration":417,"startTime":"2024-11-02T15:12:23.573665900-05:00[America/Bogota]","result":"SUCCESS","precondition":false,"level":3,"children":[{"number":6,"description":"GET https://reqres.in/api/users?page\u003d2","duration":0,"startTime":"2024-11-02T15:12:23.990512100-05:00[America/Bogota]","result":"SUCCESS","restQuery":{"method":"GET","path":"https://reqres.in/api/users?page\u003d2","content":"","contentType":"application/json","requestHeaders":"Accept\u003d*/*\r\n\t\t\t\tContent-Type\u003dapplication/json","requestCookies":"","responseHeaders":"Date: Sat, 02 Nov 2024 20:12:22 GMT\r\nContent-Type: application/json; charset\u003dutf-8\r\nTransfer-Encoding: chunked\r\nConnection: keep-alive\r\nReport-To: {\"group\":\"heroku-nel\",\"max_age\":3600,\"endpoints\":[{\"url\":\"https://nel.heroku.com/reports?ts\u003d1730570887\u0026sid\u003dc4c9725f-1ab0-44d8-820f-430df2718e11\u0026s\u003d2GH25MoZVbziJDazfd0Ub2sszbG9ZK0O2RKPo9i7M84%3D\"}]}\r\nReporting-Endpoints: heroku-nel\u003dhttps://nel.heroku.com/reports?ts\u003d1730570887\u0026sid\u003dc4c9725f-1ab0-44d8-820f-430df2718e11\u0026s\u003d2GH25MoZVbziJDazfd0Ub2sszbG9ZK0O2RKPo9i7M84%3D\r\nNel: {\"report_to\":\"heroku-nel\",\"max_age\":3600,\"success_fraction\":0.005,\"failure_fraction\":0.05,\"response_headers\":[\"Via\"]}\r\nX-Powered-By: Express\r\nAccess-Control-Allow-Origin: *\r\nEtag: W/\"406-ut0vzoCuidvyMf8arZpMpJ6ZRDw\"\r\nVia: 1.1 vegur\r\nCache-Control: max-age\u003d14400\r\nCF-Cache-Status: HIT\r\nAge: 186\r\nVary: Accept-Encoding\r\nServer: cloudflare\r\nCF-RAY: 8dc6c772f831a57c-MIA\r\nContent-Encoding: gzip\r\nserver-timing: cfL4;desc\u003d\"?proto\u003dTCP\u0026rtt\u003d75206\u0026sent\u003d6\u0026recv\u003d6\u0026lost\u003d0\u0026retrans\u003d0\u0026sent_bytes\u003d3109\u0026recv_bytes\u003d808\u0026delivery_rate\u003d57294\u0026cwnd\u003d252\u0026unsent_bytes\u003d0\u0026cid\u003d76bc2dce33a81cf8\u0026ts\u003d151\u0026x\u003d0\"\r","responseCookies":"\r","responseBody":"{\n    \"page\": 2,\n    \"per_page\": 6,\n    \"total\": 12,\n    \"total_pages\": 2,\n    \"data\": [\n        {\n            \"id\": 7,\n            \"email\": \"michael.lawson@reqres.in\",\n            \"first_name\": \"Michael\",\n            \"last_name\": \"Lawson\",\n            \"avatar\": \"https://reqres.in/img/faces/7-image.jpg\"\n        },\n        {\n            \"id\": 8,\n            \"email\": \"lindsay.ferguson@reqres.in\",\n            \"first_name\": \"Lindsay\",\n            \"last_name\": \"Ferguson\",\n            \"avatar\": \"https://reqres.in/img/faces/8-image.jpg\"\n        },\n        {\n            \"id\": 9,\n            \"email\": \"tobias.funke@reqres.in\",\n            \"first_name\": \"Tobias\",\n            \"last_name\": \"Funke\",\n            \"avatar\": \"https://reqres.in/img/faces/9-image.jpg\"\n        },\n        {\n            \"id\": 10,\n            \"email\": \"byron.fields@reqres.in\",\n            \"first_name\": \"Byron\",\n            \"last_name\": \"Fields\",\n            \"avatar\": \"https://reqres.in/img/faces/10-image.jpg\"\n        },\n        {\n            \"id\": 11,\n            \"email\": \"george.edwards@reqres.in\",\n            \"first_name\": \"George\",\n            \"last_name\": \"Edwards\",\n            \"avatar\": \"https://reqres.in/img/faces/11-image.jpg\"\n        },\n        {\n            \"id\": 12,\n            \"email\": \"rachel.howell@reqres.in\",\n            \"first_name\": \"Rachel\",\n            \"last_name\": \"Howell\",\n            \"avatar\": \"https://reqres.in/img/faces/12-image.jpg\"\n        }\n    ],\n    \"support\": {\n        \"url\": \"https://reqres.in/#support-heading\",\n        \"text\": \"To keep ReqRes free, contributions towards server costs are appreciated!\"\n    }\n}","statusCode":200},"precondition":false,"level":4}]}]}]}]},{"number":7,"description":"Then la respuesta debe contener la lista de usuarios en la página 2","duration":52,"startTime":"2024-11-02T15:12:23.996511100-05:00[America/Bogota]","result":"SUCCESS","precondition":false,"level":0,"children":[{"number":8,"description":"Then La pagina  should be (2)","duration":21,"startTime":"2024-11-02T15:12:24.025696100-05:00[America/Bogota]","result":"SUCCESS","precondition":false,"level":1}]},{"number":9,"description":"And el estado de la respuesta debe ser 200","duration":5,"startTime":"2024-11-02T15:12:24.049696300-05:00[America/Bogota]","result":"SUCCESS","precondition":false,"level":0,"children":[{"number":10,"description":"Then El estado de la respuesta should be (200)","duration":0,"startTime":"2024-11-02T15:12:24.051698500-05:00[America/Bogota]","result":"SUCCESS","precondition":false,"level":1}]}],"userStory":{"id":"list_user","storyName":"Listar Usuarios","displayName":"Listar Usuarios","path":"list_user","pathElements":[{"name":"list_user","description":""}],"narrative":"  Como usuario de API, quiero recuperar de la pagina 2 la lista de usuarios de ReqRes\n  y el código de estado","type":"feature"},"title":"Listar usuarios en la página 2","description":"","tags":[{"name":"Chrome","type":"context","displayName":"Chrome"},{"name":"Windows","type":"context","displayName":"Windows"},{"name":"Chrome, Windows","type":"context","displayName":"Chrome, Windows"}],"startTime":"2024-11-02T15:12:23.490671100-05:00[America/Bogota]","endTime":"2024-11-02T15:12:24.055697100-05:00[America/Bogota]","duration":18,"projectKey":"","isManualTestingUpToDate":false,"context":"chrome,windows","manual":false,"testSource":"Cucumber","actors":[{"name":"Antonio","can":["call an API at https://reqres.in","call an API at https://reqres.in/"]}],"order":0,"result":"SUCCESS"}